Práctica final
…
Eliminamos la variable coe (cuota de mercado) porque está calculada en función de las demas tiendas de la franquicia por provincia, es decir, el sumatorio de coe en cada provincia es 1(ver código mostrado a continuación). Por lo tanto, tiene una correlación directa con Ventas en cada provincia y ventas es la variable que queremos predecir, por lo tanto no tendremos tampoco la variable coe.

dfcoe <- dfinicial %>% 
  mutate(
      PROVINCIA=as.factor(PROVINCIA)
      )

dfcoe %>% 
  group_by(PROVINCIA) %>% 
  summarise(
    sumacoe=sum(coe)
  )

## # A tibble: 52 x 2
##    PROVINCIA sumacoe
##    <fct>       <dbl>
##  1 Álava           1
##  2 Albacete        1
##  3 Alicante        1
##  4 Almería         1
##  5 Asturias        1
##  6 Ávila           1
##  7 Badajoz         1
##  8 Baleares        1
##  9 Barcelona       1
## 10 Burgos          1
## # ... with 42 more rows
…
